%YAML 1.1
%TAG !u! tag:unity3d.com,2011:
--- !u!74 &7400000
AnimationClip:
  m_ObjectHideFlags: 0
  m_PrefabParentObject: {fileID: 0}
  m_PrefabInternal: {fileID: 0}
  m_Name: show
  serializedVersion: 4
  m_AnimationType: 2
  m_Compressed: 0
  m_UseHighQualityCurve: 1
  m_RotationCurves:
  - curve:
      serializedVersion: 2
      m_Curve:
      - time: 0
        value: {x: .707106769, y: 0, z: 0, w: .707106769}
        inSlope: {x: -1.49215567, y: 0, z: 0, w: 1.44142973}
        outSlope: {x: -1.49215567, y: 0, z: 0, w: 1.44142973}
        tangentMode: 1064507802
      - time: .0166666675
        value: {x: .682237506, y: 0, z: 0, w: .7311306}
        inSlope: {x: -1.49335194, y: 0, z: 0, w: 1.39492559}
        outSlope: {x: -1.49335194, y: 0, z: 0, w: 1.39492559}
        tangentMode: 1085608327
      - time: .0333333351
        value: {x: .657328367, y: 0, z: 0, w: .753604293}
        inSlope: {x: -1.49318385, y: 0, z: 0, w: 1.30375719}
        outSlope: {x: -1.49318385, y: 0, z: 0, w: 1.30375719}
        tangentMode: 0
      - time: .0500000045
        value: {x: .632464707, y: 0, z: 0, w: .774589181}
        inSlope: {x: -1.48811626, y: 0, z: 0, w: 1.21630836}
        outSlope: {x: -1.48811626, y: 0, z: 0, w: 1.21630836}
        tangentMode: 0
      - time: .0666666701
        value: {x: .607724488, y: 0, z: 0, w: .794147909}
        inSlope: {x: -1.47859466, y: 0, z: 0, w: 1.13265049}
        outSlope: {x: -1.47859466, y: 0, z: 0, w: 1.13265049}
        tangentMode: 0
      - time: .0833333358
        value: {x: .583178222, y: 0, z: 0, w: .812344193}
        inSlope: {x: -1.46504414, y: 0, z: 0, w: 1.05282259}
        outSlope: {x: -1.46504414, y: 0, z: 0, w: 1.05282259}
        tangentMode: 0
      - time: .100000001
        value: {x: .558889687, y: 0, z: 0, w: .829241991}
        inSlope: {x: -1.44786727, y: 0, z: 0, w: .976832032}
        outSlope: {x: -1.44786727, y: 0, z: 0, w: .976832032}
        tangentMode: 1049694482
      - time: .116666667
        value: {x: .534915984, y: 0, z: 0, w: .844905257}
        inSlope: {x: -1.42743921, y: 0, z: 0, w: .904660702}
        outSlope: {x: -1.42743921, y: 0, z: 0, w: .904660702}
        tangentMode: 0
      - time: .13333334
        value: {x: .511308372, y: 0, z: 0, w: .859397352}
        inSlope: {x: -1.40412092, y: 0, z: 0, w: .836273313}
        outSlope: {x: -1.40412092, y: 0, z: 0, w: .836273313}
        tangentMode: 1050213098
      - time: .150000006
        value: {x: .488111943, y: 0, z: 0, w: .872781038}
        inSlope: {x: -1.37824786, y: 0, z: 0, w: .771617949}
        outSlope: {x: -1.37824786, y: 0, z: 0, w: .771617949}
        tangentMode: 1051741162
      - time: .166666672
        value: {x: .465366781, y: 0, z: 0, w: .885117948}
        inSlope: {x: -1.35012841, y: 0, z: 0, w: .71062094}
        outSlope: {x: -1.35012841, y: 0, z: 0, w: .71062094}
        tangentMode: 2
      - time: .183333337
        value: {x: .443107665, y: 0, z: 0, w: .896468401}
        inSlope: {x: -1.32006001, y: 0, z: 0, w: .653198421}
        outSlope: {x: -1.32006001, y: 0, z: 0, w: .653198421}
        tangentMode: 1066411217
      - time: .200000003
        value: {x: .421364784, y: 0, z: 0, w: .906891227}
        inSlope: {x: -1.28831434, y: 0, z: 0, w: .599255621}
        outSlope: {x: -1.28831434, y: 0, z: 0, w: .599255621}
        tangentMode: 1082516802
      - time: .216666669
        value: {x: .400163859, y: 0, z: 0, w: .916443586}
        inSlope: {x: -1.25514162, y: 0, z: 0, w: .548687041}
        outSlope: {x: -1.25514162, y: 0, z: 0, w: .548687041}
        tangentMode: 0
      - time: .233333334
        value: {x: .379526734, y: 0, z: 0, w: .925180793}
        inSlope: {x: -1.22077441, y: 0, z: 0, w: .50137645}
        outSlope: {x: -1.22077441, y: 0, z: 0, w: .50137645}
        tangentMode: 0
      - time: .25
        value: {x: .359471381, y: 0, z: 0, w: .933156133}
        inSlope: {x: -1.18543136, y: 0, z: 0, w: .457205594}
        outSlope: {x: -1.18543136, y: 0, z: 0, w: .457205594}
        tangentMode: 0
      - time: .266666681
        value: {x: .340012342, y: 0, z: 0, w: .940420985}
        inSlope: {x: -1.14930594, y: 0, z: 0, w: .416053176}
        outSlope: {x: -1.14930594, y: 0, z: 0, w: .416053176}
        tangentMode: 0
      - time: .283333361
        value: {x: .321161151, y: 0, z: 0, w: .947024584}
        inSlope: {x: -1.11257935, y: 0, z: 0, w: .377788842}
        outSlope: {x: -1.11257935, y: 0, z: 0, w: .377788842}
        tangentMode: 1053609169
      - time: .300000042
        value: {x: .302926332, y: 0, z: 0, w: .953013957}
        inSlope: {x: -1.07542098, y: 0, z: 0, w: .342287123}
        outSlope: {x: -1.07542098, y: 0, z: 0, w: .342287123}
        tangentMode: 0
      - time: .316666722
        value: {x: .285313755, y: 0, z: 0, w: .958434165}
        inSlope: {x: -1.03797913, y: 0, z: 0, w: .309417605}
        outSlope: {x: -1.03797913, y: 0, z: 0, w: .309417605}
        tangentMode: 1044279223
      - time: .333333403
        value: {x: .268326998, y: 0, z: 0, w: .963327885}
        inSlope: {x: -1.00039077, y: 0, z: 0, w: .279046059}
        outSlope: {x: -1.00039077, y: 0, z: 0, w: .279046059}
        tangentMode: 1042432696
      - time: .350000083
        value: {x: .251967371, y: 0, z: 0, w: .967735708}
        inSlope: {x: -.962781668, y: 0, z: 0, w: .251047403}
        outSlope: {x: -.962781668, y: 0, z: 0, w: .251047403}
        tangentMode: 2
      - time: .366666764
        value: {x: .236234248, y: 0, z: 0, w: .971696138}
        inSlope: {x: -.925264359, y: 0, z: 0, w: .225291073}
        outSlope: {x: -.925264359, y: 0, z: 0, w: .225291073}
        tangentMode: 1066241145
      - time: .383333445
        value: {x: .2211252, y: 0, z: 0, w: .975245416}
        inSlope: {x: -.887939632, y: 0, z: 0, w: .201650083}
        outSlope: {x: -.887939632, y: 0, z: 0, w: .201650083}
        tangentMode: 1076828187
      - time: .400000125
        value: {x: .206636235, y: 0, z: 0, w: .978417814}
        inSlope: {x: -.850898385, y: 0, z: 0, w: .180004686}
        outSlope: {x: -.850898385, y: 0, z: 0, w: .180004686}
        tangentMode: 0
      - time: .416666806
        value: {x: .192761898, y: 0, z: 0, w: .981245577}
        inSlope: {x: -.814223647, y: 0, z: 0, w: .160229668}
        outSlope: {x: -.814223647, y: 0, z: 0, w: .160229668}
        tangentMode: 0
      - time: .433333486
        value: {x: .179495424, y: 0, z: 0, w: .983758807}
        inSlope: {x: -.777988791, y: 0, z: 0, w: .142208815}
        outSlope: {x: -.777988791, y: 0, z: 0, w: .142208815}
        tangentMode: 0
      - time: .450000167
        value: {x: .166828915, y: 0, z: 0, w: .985985875}
        inSlope: {x: -.742257833, y: 0, z: 0, w: .125829473}
        outSlope: {x: -.742257833, y: 0, z: 0, w: .125829473}
        tangentMode: 0
      - time: .466666847
        value: {x: .154753476, y: 0, z: 0, w: .987953126}
        inSlope: {x: -.707088709, y: 0, z: 0, w: .110978991}
        outSlope: {x: -.707088709, y: 0, z: 0, w: .110978991}
        tangentMode: 1057244231
      - time: .483333528
        value: {x: .143259272, y: 0, z: 0, w: .989685178}
        inSlope: {x: -.672533989, y: 0, z: 0, w: .0975555182}
        outSlope: {x: -.672533989, y: 0, z: 0, w: .0975555182}
        tangentMode: 0
      - time: .500000179
        value: {x: .132335678, y: 0, z: 0, w: .991204977}
        inSlope: {x: -.638637662, y: 0, z: 0, w: .085453473}
        outSlope: {x: -.638637662, y: 0, z: 0, w: .085453473}
        tangentMode: 1037269628
      - time: .51666683
        value: {x: .121971369, y: 0, z: 0, w: .992533624}
        inSlope: {x: -.605439544, y: 0, z: 0, w: .0745744258}
        outSlope: {x: -.605439544, y: 0, z: 0, w: .0745744258}
        tangentMode: 1031413583
      - time: .53333348
        value: {x: .112154379, y: 0, z: 0, w: .993690789}
        inSlope: {x: -.572974682, y: 0, z: 0, w: .0648290515}
        outSlope: {x: -.572974682, y: 0, z: 0, w: .0648290515}
        tangentMode: 2
      - time: .550000131
        value: {x: .10287223, y: 0, z: 0, w: .994694591}
        inSlope: {x: -.541273177, y: 0, z: 0, w: .0561243817}
        outSlope: {x: -.541273177, y: 0, z: 0, w: .0561243817}
        tangentMode: 1065190257
      - time: .566666782
        value: {x: .0941119567, y: 0, z: 0, w: .9955616}
        inSlope: {x: -.510361135, y: 0, z: 0, w: .0483781546}
        outSlope: {x: -.510361135, y: 0, z: 0, w: .0483781546}
        tangentMode: 1070194646
      - time: .583333433
        value: {x: .0858602077, y: 0, z: 0, w: .996307194}
        inSlope: {x: -.480262041, y: 0, z: 0, w: .041509904}
        outSlope: {x: -.480262041, y: 0, z: 0, w: .041509904}
        tangentMode: 0
      - time: .600000083
        value: {x: .0781032369, y: 0, z: 0, w: .996945262}
        inSlope: {x: -.450995773, y: 0, z: 0, w: .0354427435}
        outSlope: {x: -.450995773, y: 0, z: 0, w: .0354427435}
        tangentMode: 0
      - time: .616666734
        value: {x: .0708270296, y: 0, z: 0, w: .997488618}
        inSlope: {x: -.422577977, y: 0, z: 0, w: .0301051419}
        outSlope: {x: -.422577977, y: 0, z: 0, w: .0301051419}
        tangentMode: 0
      - time: .633333385
        value: {x: .0640173182, y: 0, z: 0, w: .997948766}
        inSlope: {x: -.395023167, y: 0, z: 0, w: .025430942}
        outSlope: {x: -.395023167, y: 0, z: 0, w: .025430942}
        tangentMode: 0
      - time: .650000036
        value: {x: .0576596037, y: 0, z: 0, w: .998336315}
        inSlope: {x: -.368344069, y: 0, z: 0, w: .0213557687}
        outSlope: {x: -.368344069, y: 0, z: 0, w: .0213557687}
        tangentMode: 1059201571
      - time: .666666687
        value: {x: .0517391935, y: 0, z: 0, w: .998660624}
        inSlope: {x: -.342550695, y: 0, z: 0, w: .0178188253}
        outSlope: {x: -.342550695, y: 0, z: 0, w: .0178188253}
        tangentMode: 0
      - time: .683333337
        value: {x: .0462412573, y: 0, z: 0, w: .998930275}
        inSlope: {x: -.31765151, y: 0, z: 0, w: .0147700449}
        outSlope: {x: -.31765151, y: 0, z: 0, w: .0147700449}
        tangentMode: 1027886258
      - time: .699999988
        value: {x: .0411508195, y: 0, z: 0, w: .999152958}
        inSlope: {x: -.293653905, y: 0, z: 0, w: .0121522062}
        outSlope: {x: -.293653905, y: 0, z: 0, w: .0121522062}
        tangentMode: 1016163849
      - time: .716666639
        value: {x: .0364528038, y: 0, z: 0, w: .999335349}
        inSlope: {x: -.270563513, y: 0, z: 0, w: .00992060639}
        outSlope: {x: -.270563513, y: 0, z: 0, w: .00992060639}
        tangentMode: 2
      - time: .73333329
        value: {x: .0321320444, y: 0, z: 0, w: .999483645}
        inSlope: {x: -.248385146, y: 0, z: 0, w: .00803054124}
        outSlope: {x: -.248385146, y: 0, z: 0, w: .00803054124}
        tangentMode: 1062591755
      - time: .74999994
        value: {x: .028173307, y: 0, z: 0, w: .999603033}
        inSlope: {x: -.227122694, y: 0, z: 0, w: .00644088443}
        outSlope: {x: -.227122694, y: 0, z: 0, w: .00644088443}
        tangentMode: 1061644037
      - time: .766666591
        value: {x: .0245612953, y: 0, z: 0, w: .999698341}
        inSlope: {x: -.206779569, y: 0, z: 0, w: .00511587132}
        outSlope: {x: -.206779569, y: 0, z: 0, w: .00511587132}
        tangentMode: 0
      - time: .783333242
        value: {x: .0212806612, y: 0, z: 0, w: .999773562}
        inSlope: {x: -.187358171, y: 0, z: 0, w: .00401795283}
        outSlope: {x: -.187358171, y: 0, z: 0, w: .00401795283}
        tangentMode: 0
      - time: .799999893
        value: {x: .0183160286, y: 0, z: 0, w: .999832273}
        inSlope: {x: -.168860465, y: 0, z: 0, w: .00311851781}
        outSlope: {x: -.168860465, y: 0, z: 0, w: .00311851781}
        tangentMode: 0
      - time: .816666543
        value: {x: .0156519841, y: 0, z: 0, w: .999877512}
        inSlope: {x: -.151288152, y: 0, z: 0, w: .00238895649}
        outSlope: {x: -.151288152, y: 0, z: 0, w: .00238895649}
        tangentMode: 0
      - time: .833333194
        value: {x: .0132730948, y: 0, z: 0, w: .999911904}
        inSlope: {x: -.134642184, y: 0, z: 0, w: .00180423423}
        outSlope: {x: -.134642184, y: 0, z: 0, w: .00180423423}
        tangentMode: 1061158911
      - time: .849999845
        value: {x: .0111639155, y: 0, z: 0, w: .999937654}
        inSlope: {x: -.11892359, y: 0, z: 0, w: .00134289393}
        outSlope: {x: -.11892359, y: 0, z: 0, w: .00134289393}
        tangentMode: 0
      - time: .866666496
        value: {x: .00930897892, y: 0, z: 0, w: .999956667}
        inSlope: {x: -.104133174, y: 0, z: 0, w: .00098347757}
        outSlope: {x: -.104133174, y: 0, z: 0, w: .00098347757}
        tangentMode: 1015182087
      - time: .883333147
        value: {x: .00769281294, y: 0, z: 0, w: .999970436}
        inSlope: {x: -.090271242, y: 0, z: 0, w: .0007045276}
        outSlope: {x: -.090271242, y: 0, z: 0, w: .0007045276}
        tangentMode: 994423308
      - time: .899999797
        value: {x: .0062999404, y: 0, z: 0, w: .999980152}
        inSlope: {x: -.0773382336, y: 0, z: 0, w: .000495315064}
        outSlope: {x: -.0773382336, y: 0, z: 0, w: .000495315064}
        tangentMode: 2
      - time: .916666448
        value: {x: .00511487434, y: 0, z: 0, w: .999986947}
        inSlope: {x: -.0653344244, y: 0, z: 0, w: .000339746795}
        outSlope: {x: -.0653344244, y: 0, z: 0, w: .000339746795}
        tangentMode: 1059784523
      - time: .933333099
        value: {x: .00412212824, y: 0, z: 0, w: .999991477}
        inSlope: {x: -.0542599335, y: 0, z: 0, w: .000227093915}
        outSlope: {x: -.0542599335, y: 0, z: 0, w: .000227093915}
        tangentMode: 1048611416
      - time: .94999975
        value: {x: .00330621167, y: 0, z: 0, w: .999994516}
        inSlope: {x: -.0441149138, y: 0, z: 0, w: .00015020385}
        outSlope: {x: -.0441149138, y: 0, z: 0, w: .00015020385}
        tangentMode: 0
      - time: .9666664
        value: {x: .00265163253, y: 0, z: 0, w: .999996483}
        inSlope: {x: -.0348994359, y: 0, z: 0, w: 9.47714725e-05}
        outSlope: {x: -.0348994359, y: 0, z: 0, w: 9.47714725e-05}
        tangentMode: 0
      - time: .983333051
        value: {x: .00214289827, y: 0, z: 0, w: .999997675}
        inSlope: {x: -.0266135391, y: 0, z: 0, w: 5.90086529e-05}
        outSlope: {x: -.0266135391, y: 0, z: 0, w: 5.90086529e-05}
        tangentMode: 0
      - time: .999999702
        value: {x: .00176451541, y: 0, z: 0, w: .99999845}
        inSlope: {x: -.0192572474, y: 0, z: 0, w: 3.5762776e-05}
        outSlope: {x: -.0192572474, y: 0, z: 0, w: 3.5762776e-05}
        tangentMode: 0
      - time: 1.01666641
        value: {x: .00150098966, y: 0, z: 0, w: .999998868}
        inSlope: {x: -.012830575, y: 0, z: 0, w: 1.96695073e-05}
        outSlope: {x: -.012830575, y: 0, z: 0, w: 1.96695073e-05}
        tangentMode: 1063116251
      - time: 1.03333306
        value: {x: .00133682904, y: 0, z: 0, w: .999999106}
        inSlope: {x: -.0073335506, y: 0, z: 0, w: 1.07288461e-05}
        outSlope: {x: -.0073335506, y: 0, z: 0, w: 1.07288461e-05}
        tangentMode: 0
      - time: 1.04999971
        value: {x: .00125653821, y: 0, z: 0, w: .999999225}
        inSlope: {x: -.00276617054, y: 0, z: 0, w: 3.5762821e-06}
        outSlope: {x: -.00276617054, y: 0, z: 0, w: 3.5762821e-06}
        tangentMode: 993319834
      - time: 1.06666636
        value: {x: .00124462345, y: 0, z: 0, w: .999999225}
        inSlope: {x: .000871572061, y: 0, z: 0, w: -1.78814105e-06}
        outSlope: {x: .000871572061, y: 0, z: 0, w: -1.78814105e-06}
        tangentMode: 956882952
      - time: 1.08333302
        value: {x: .00128559058, y: 0, z: 0, w: .999999166}
        inSlope: {x: .00357966637, y: 0, z: 0, w: -5.36442303e-06}
        outSlope: {x: .00357966637, y: 0, z: 0, w: -5.36442303e-06}
        tangentMode: 2
      - time: 1.09999967
        value: {x: .00136394554, y: 0, z: 0, w: .999999046}
        inSlope: {x: .00535812974, y: 0, z: 0, w: -7.15256419e-06}
        outSlope: {x: .00535812974, y: 0, z: 0, w: -7.15256419e-06}
        tangentMode: 1064473724
      - time: 1.11666632
        value: {x: .00146419473, y: 0, z: 0, w: .999998927}
        inSlope: {x: .00620694133, y: 0, z: 0, w: -8.9407049e-06}
        outSlope: {x: .00620694133, y: 0, z: 0, w: -8.9407049e-06}
        tangentMode: 1028845288
      - time: 1.13333297
        value: {x: .00157084339, y: 0, z: 0, w: .999998748}
        inSlope: {x: .00612610485, y: 0, z: 0, w: -8.9407049e-06}
        outSlope: {x: .00612610485, y: 0, z: 0, w: -8.9407049e-06}
        tangentMode: 0
      - time: 1.14999962
        value: {x: .00166839804, y: 0, z: 0, w: .999998629}
        inSlope: {x: .00511840545, y: 0, z: 0, w: -7.15248734e-06}
        outSlope: {x: .00511840545, y: 0, z: 0, w: -7.15248734e-06}
        tangentMode: 1060439283
      - time: 1.16666663
        value: {x: .00174145831, y: 0, z: 0, w: .99999851}
        inSlope: {x: .00438352674, y: 0, z: 0, w: -7.15241094e-06}
        outSlope: {x: .00438352674, y: 0, z: 0, w: -7.15241094e-06}
        tangentMode: 1049135241
      m_PreInfinity: 2
      m_PostInfinity: 2
    path: 
  m_CompressedRotationCurves: []
  m_PositionCurves: []
  m_ScaleCurves: []
  m_FloatCurves: []
  m_PPtrCurves: []
  m_SampleRate: 60
  m_WrapMode: 0
  m_Bounds:
    m_Center: {x: 0, y: 0, z: 0}
    m_Extent: {x: 0, y: 0, z: 0}
  m_AnimationClipSettings:
    serializedVersion: 2
    m_StartTime: 0
    m_StopTime: 1.16666663
    m_OrientationOffsetY: 0
    m_Level: 0
    m_CycleOffset: 0
    m_LoopTime: 0
    m_LoopBlend: 0
    m_LoopBlendOrientation: 0
    m_LoopBlendPositionY: 0
    m_LoopBlendPositionXZ: 0
    m_KeepOriginalOrientation: 0
    m_KeepOriginalPositionY: 1
    m_KeepOriginalPositionXZ: 0
    m_HeightFromFeet: 0
    m_Mirror: 0
  m_EditorCurves:
  - curve:
      serializedVersion: 2
      m_Curve:
      - time: 0
        value: .707106769
        inSlope: -1.49215567
        outSlope: -1.49215567
        tangentMode: 0
      - time: .0166666675
        value: .682237506
        inSlope: -1.49335194
        outSlope: -1.49335194
        tangentMode: 0
      - time: .0333333351
        value: .657328367
        inSlope: -1.49318385
        outSlope: -1.49318385
        tangentMode: 0
      - time: .0500000045
        value: .632464707
        inSlope: -1.48811626
        outSlope: -1.48811626
        tangentMode: 0
      - time: .0666666701
        value: .607724488
        inSlope: -1.47859466
        outSlope: -1.47859466
        tangentMode: 0
      - time: .0833333358
        value: .583178222
        inSlope: -1.46504414
        outSlope: -1.46504414
        tangentMode: 0
      - time: .100000001
        value: .558889687
        inSlope: -1.44786727
        outSlope: -1.44786727
        tangentMode: 0
      - time: .116666667
        value: .534915984
        inSlope: -1.42743921
        outSlope: -1.42743921
        tangentMode: 0
      - time: .13333334
        value: .511308372
        inSlope: -1.40412092
        outSlope: -1.40412092
        tangentMode: 0
      - time: .150000006
        value: .488111943
        inSlope: -1.37824786
        outSlope: -1.37824786
        tangentMode: 0
      - time: .166666672
        value: .465366781
        inSlope: -1.35012841
        outSlope: -1.35012841
        tangentMode: 0
      - time: .183333337
        value: .443107665
        inSlope: -1.32006001
        outSlope: -1.32006001
        tangentMode: 0
      - time: .200000003
        value: .421364784
        inSlope: -1.28831434
        outSlope: -1.28831434
        tangentMode: 0
      - time: .216666669
        value: .400163859
        inSlope: -1.25514162
        outSlope: -1.25514162
        tangentMode: 0
      - time: .233333334
        value: .379526734
        inSlope: -1.22077441
        outSlope: -1.22077441
        tangentMode: 0
      - time: .25
        value: .359471381
        inSlope: -1.18543136
        outSlope: -1.18543136
        tangentMode: 0
      - time: .266666681
        value: .340012342
        inSlope: -1.14930594
        outSlope: -1.14930594
        tangentMode: 0
      - time: .283333361
        value: .321161151
        inSlope: -1.11257935
        outSlope: -1.11257935
        tangentMode: 0
      - time: .300000042
        value: .302926332
        inSlope: -1.07542098
        outSlope: -1.07542098
        tangentMode: 0
      - time: .316666722
        value: .285313755
        inSlope: -1.03797913
        outSlope: -1.03797913
        tangentMode: 0
      - time: .333333403
        value: .268326998
        inSlope: -1.00039077
        outSlope: -1.00039077
        tangentMode: 0
      - time: .350000083
        value: .251967371
        inSlope: -.962781668
        outSlope: -.962781668
        tangentMode: 0
      - time: .366666764
        value: .236234248
        inSlope: -.925264359
        outSlope: -.925264359
        tangentMode: 0
      - time: .383333445
        value: .2211252
        inSlope: -.887939632
        outSlope: -.887939632
        tangentMode: 0
      - time: .400000125
        value: .206636235
        inSlope: -.850898385
        outSlope: -.850898385
        tangentMode: 0
      - time: .416666806
        value: .192761898
        inSlope: -.814223647
        outSlope: -.814223647
        tangentMode: 0
      - time: .433333486
        value: .179495424
        inSlope: -.777988791
        outSlope: -.777988791
        tangentMode: 0
      - time: .450000167
        value: .166828915
        inSlope: -.742257833
        outSlope: -.742257833
        tangentMode: 0
      - time: .466666847
        value: .154753476
        inSlope: -.707088709
        outSlope: -.707088709
        tangentMode: 0
      - time: .483333528
        value: .143259272
        inSlope: -.672533989
        outSlope: -.672533989
        tangentMode: 0
      - time: .500000179
        value: .132335678
        inSlope: -.638637662
        outSlope: -.638637662
        tangentMode: 0
      - time: .51666683
        value: .121971369
        inSlope: -.605439544
        outSlope: -.605439544
        tangentMode: 0
      - time: .53333348
        value: .112154379
        inSlope: -.572974682
        outSlope: -.572974682
        tangentMode: 0
      - time: .550000131
        value: .10287223
        inSlope: -.541273177
        outSlope: -.541273177
        tangentMode: 0
      - time: .566666782
        value: .0941119567
        inSlope: -.510361135
        outSlope: -.510361135
        tangentMode: 0
      - time: .583333433
        value: .0858602077
        inSlope: -.480262041
        outSlope: -.480262041
        tangentMode: 0
      - time: .600000083
        value: .0781032369
        inSlope: -.450995773
        outSlope: -.450995773
        tangentMode: 0
      - time: .616666734
        value: .0708270296
        inSlope: -.422577977
        outSlope: -.422577977
        tangentMode: 0
      - time: .633333385
        value: .0640173182
        inSlope: -.395023167
        outSlope: -.395023167
        tangentMode: 0
      - time: .650000036
        value: .0576596037
        inSlope: -.368344069
        outSlope: -.368344069
        tangentMode: 0
      - time: .666666687
        value: .0517391935
        inSlope: -.342550695
        outSlope: -.342550695
        tangentMode: 0
      - time: .683333337
        value: .0462412573
        inSlope: -.31765151
        outSlope: -.31765151
        tangentMode: 0
      - time: .699999988
        value: .0411508195
        inSlope: -.293653905
        outSlope: -.293653905
        tangentMode: 0
      - time: .716666639
        value: .0364528038
        inSlope: -.270563513
        outSlope: -.270563513
        tangentMode: 0
      - time: .73333329
        value: .0321320444
        inSlope: -.248385146
        outSlope: -.248385146
        tangentMode: 0
      - time: .74999994
        value: .028173307
        inSlope: -.227122694
        outSlope: -.227122694
        tangentMode: 0
      - time: .766666591
        value: .0245612953
        inSlope: -.206779569
        outSlope: -.206779569
        tangentMode: 0
      - time: .783333242
        value: .0212806612
        inSlope: -.187358171
        outSlope: -.187358171
        tangentMode: 0
      - time: .799999893
        value: .0183160286
        inSlope: -.168860465
        outSlope: -.168860465
        tangentMode: 0
      - time: .816666543
        value: .0156519841
        inSlope: -.151288152
        outSlope: -.151288152
        tangentMode: 0
      - time: .833333194
        value: .0132730948
        inSlope: -.134642184
        outSlope: -.134642184
        tangentMode: 0
      - time: .849999845
        value: .0111639155
        inSlope: -.11892359
        outSlope: -.11892359
        tangentMode: 0
      - time: .866666496
        value: .00930897892
        inSlope: -.104133174
        outSlope: -.104133174
        tangentMode: 0
      - time: .883333147
        value: .00769281294
        inSlope: -.090271242
        outSlope: -.090271242
        tangentMode: 0
      - time: .899999797
        value: .0062999404
        inSlope: -.0773382336
        outSlope: -.0773382336
        tangentMode: 0
      - time: .916666448
        value: .00511487434
        inSlope: -.0653344244
        outSlope: -.0653344244
        tangentMode: 0
      - time: .933333099
        value: .00412212824
        inSlope: -.0542599335
        outSlope: -.0542599335
        tangentMode: 0
      - time: .94999975
        value: .00330621167
        inSlope: -.0441149138
        outSlope: -.0441149138
        tangentMode: 0
      - time: .9666664
        value: .00265163253
        inSlope: -.0348994359
        outSlope: -.0348994359
        tangentMode: 0
      - time: .983333051
        value: .00214289827
        inSlope: -.0266135391
        outSlope: -.0266135391
        tangentMode: 0
      - time: .999999702
        value: .00176451541
        inSlope: -.0192572474
        outSlope: -.0192572474
        tangentMode: 0
      - time: 1.01666641
        value: .00150098966
        inSlope: -.012830575
        outSlope: -.012830575
        tangentMode: 0
      - time: 1.03333306
        value: .00133682904
        inSlope: -.0073335506
        outSlope: -.0073335506
        tangentMode: 0
      - time: 1.04999971
        value: .00125653821
        inSlope: -.00276617054
        outSlope: -.00276617054
        tangentMode: 0
      - time: 1.06666636
        value: .00124462345
        inSlope: .000871572061
        outSlope: .000871572061
        tangentMode: 0
      - time: 1.08333302
        value: .00128559058
        inSlope: .00357966637
        outSlope: .00357966637
        tangentMode: 0
      - time: 1.09999967
        value: .00136394554
        inSlope: .00535812974
        outSlope: .00535812974
        tangentMode: 0
      - time: 1.11666632
        value: .00146419473
        inSlope: .00620694133
        outSlope: .00620694133
        tangentMode: 0
      - time: 1.13333297
        value: .00157084339
        inSlope: .00612610485
        outSlope: .00612610485
        tangentMode: 0
      - time: 1.14999962
        value: .00166839804
        inSlope: .00511840545
        outSlope: .00511840545
        tangentMode: 0
      - time: 1.16666663
        value: .00174145831
        inSlope: .00438352674
        outSlope: .00438352674
        tangentMode: 0
      m_PreInfinity: 2
      m_PostInfinity: 2
    attribute: m_LocalRotation.x
    path: 
    classID: 4
    script: {fileID: 0}
  - curve:
      serializedVersion: 2
      m_Curve:
      - time: 0
        value: 0
        inSlope: 0
        outSlope: 0
        tangentMode: 0
      - time: .0166666675
        value: 0
        inSlope: 0
        outSlope: 0
        tangentMode: 0
      - time: .0333333351
        value: 0
        inSlope: 0
        outSlope: 0
        tangentMode: 0
      - time: .0500000045
        value: 0
        inSlope: 0
        outSlope: 0
        tangentMode: 0
      - time: .0666666701
        value: 0
        inSlope: 0
        outSlope: 0
        tangentMode: 0
      - time: .0833333358
        value: 0
        inSlope: 0
        outSlope: 0
        tangentMode: 0
      - time: .100000001
        value: 0
        inSlope: 0
        outSlope: 0
        tangentMode: 0
      - time: .116666667
        value: 0
        inSlope: 0
        outSlope: 0
        tangentMode: 0
      - time: .13333334
        value: 0
        inSlope: 0
        outSlope: 0
        tangentMode: 0
      - time: .150000006
        value: 0
        inSlope: 0
        outSlope: 0
        tangentMode: 0
      - time: .166666672
        value: 0
        inSlope: 0
        outSlope: 0
        tangentMode: 0
      - time: .183333337
        value: 0
        inSlope: 0
        outSlope: 0
        tangentMode: 0
      - time: .200000003
        value: 0
        inSlope: 0
        outSlope: 0
        tangentMode: 0
      - time: .216666669
        value: 0
        inSlope: 0
        outSlope: 0
        tangentMode: 0
      - time: .233333334
        value: 0
        inSlope: 0
        outSlope: 0
        tangentMode: 0
      - time: .25
        value: 0
        inSlope: 0
        outSlope: 0
        tangentMode: 0
      - time: .266666681
        value: 0
        inSlope: 0
        outSlope: 0
        tangentMode: 0
      - time: .283333361
        value: 0
        inSlope: 0
        outSlope: 0
        tangentMode: 0
      - time: .300000042
        value: 0
        inSlope: 0
        outSlope: 0
        tangentMode: 0
      - time: .316666722
        value: 0
        inSlope: 0
        outSlope: 0
        tangentMode: 0
      - time: .333333403
        value: 0
        inSlope: 0
        outSlope: 0
        tangentMode: 0
      - time: .350000083
        value: 0
        inSlope: 0
        outSlope: 0
        tangentMode: 0
      - time: .366666764
        value: 0
        inSlope: 0
        outSlope: 0
        tangentMode: 0
      - time: .383333445
        value: 0
        inSlope: 0
        outSlope: 0
        tangentMode: 0
      - time: .400000125
        value: 0
        inSlope: 0
        outSlope: 0
        tangentMode: 0
      - time: .416666806
        value: 0
        inSlope: 0
        outSlope: 0
        tangentMode: 0
      - time: .433333486
        value: 0
        inSlope: 0
        outSlope: 0
        tangentMode: 0
      - time: .450000167
        value: 0
        inSlope: 0
        outSlope: 0
        tangentMode: 0
      - time: .466666847
        value: 0
        inSlope: 0
        outSlope: 0
        tangentMode: 0
      - time: .483333528
        value: 0
        inSlope: 0
        outSlope: 0
        tangentMode: 0
      - time: .500000179
        value: 0
        inSlope: 0
        outSlope: 0
        tangentMode: 0
      - time: .51666683
        value: 0
        inSlope: 0
        outSlope: 0
        tangentMode: 0
      - time: .53333348
        value: 0
        inSlope: 0
        outSlope: 0
        tangentMode: 0
      - time: .550000131
        value: 0
        inSlope: 0
        outSlope: 0
        tangentMode: 0
      - time: .566666782
        value: 0
        inSlope: 0
        outSlope: 0
        tangentMode: 0
      - time: .583333433
        value: 0
        inSlope: 0
        outSlope: 0
        tangentMode: 0
      - time: .600000083
        value: 0
        inSlope: 0
        outSlope: 0
        tangentMode: 0
      - time: .616666734
        value: 0
        inSlope: 0
        outSlope: 0
        tangentMode: 0
      - time: .633333385
        value: 0
        inSlope: 0
        outSlope: 0
        tangentMode: 0
      - time: .650000036
        value: 0
        inSlope: 0
        outSlope: 0
        tangentMode: 0
      - time: .666666687
        value: 0
        inSlope: 0
        outSlope: 0
        tangentMode: 0
      - time: .683333337
        value: 0
        inSlope: 0
        outSlope: 0
        tangentMode: 0
      - time: .699999988
        value: 0
        inSlope: 0
        outSlope: 0
        tangentMode: 0
      - time: .716666639
        value: 0
        inSlope: 0
        outSlope: 0
        tangentMode: 0
      - time: .73333329
        value: 0
        inSlope: 0
        outSlope: 0
        tangentMode: 0
      - time: .74999994
        value: 0
        inSlope: 0
        outSlope: 0
        tangentMode: 0
      - time: .766666591
        value: 0
        inSlope: 0
        outSlope: 0
        tangentMode: 0
      - time: .783333242
        value: 0
        inSlope: 0
        outSlope: 0
        tangentMode: 0
      - time: .799999893
        value: 0
        inSlope: 0
        outSlope: 0
        tangentMode: 0
      - time: .816666543
        value: 0
        inSlope: 0
        outSlope: 0
        tangentMode: 0
      - time: .833333194
        value: 0
        inSlope: 0
        outSlope: 0
        tangentMode: 0
      - time: .849999845
        value: 0
        inSlope: 0
        outSlope: 0
        tangentMode: 0
      - time: .866666496
        value: 0
        inSlope: 0
        outSlope: 0
        tangentMode: 0
      - time: .883333147
        value: 0
        inSlope: 0
        outSlope: 0
        tangentMode: 0
      - time: .899999797
        value: 0
        inSlope: 0
        outSlope: 0
        tangentMode: 0
      - time: .916666448
        value: 0
        inSlope: 0
        outSlope: 0
        tangentMode: 0
      - time: .933333099
        value: 0
        inSlope: 0
        outSlope: 0
        tangentMode: 0
      - time: .94999975
        value: 0
        inSlope: 0
        outSlope: 0
        tangentMode: 0
      - time: .9666664
        value: 0
        inSlope: 0
        outSlope: 0
        tangentMode: 0
      - time: .983333051
        value: 0
        inSlope: 0
        outSlope: 0
        tangentMode: 0
      - time: .999999702
        value: 0
        inSlope: 0
        outSlope: 0
        tangentMode: 0
      - time: 1.01666641
        value: 0
        inSlope: 0
        outSlope: 0
        tangentMode: 0
      - time: 1.03333306
        value: 0
        inSlope: 0
        outSlope: 0
        tangentMode: 0
      - time: 1.04999971
        value: 0
        inSlope: 0
        outSlope: 0
        tangentMode: 0
      - time: 1.06666636
        value: 0
        inSlope: 0
        outSlope: 0
        tangentMode: 0
      - time: 1.08333302
        value: 0
        inSlope: 0
        outSlope: 0
        tangentMode: 0
      - time: 1.09999967
        value: 0
        inSlope: 0
        outSlope: 0
        tangentMode: 0
      - time: 1.11666632
        value: 0
        inSlope: 0
        outSlope: 0
        tangentMode: 0
      - time: 1.13333297
        value: 0
        inSlope: 0
        outSlope: 0
        tangentMode: 0
      - time: 1.14999962
        value: 0
        inSlope: 0
        outSlope: 0
        tangentMode: 0
      - time: 1.16666663
        value: 0
        inSlope: 0
        outSlope: 0
        tangentMode: 0
      m_PreInfinity: 2
      m_PostInfinity: 2
    attribute: m_LocalRotation.y
    path: 
    classID: 4
    script: {fileID: 0}
  - curve:
      serializedVersion: 2
      m_Curve:
      - time: 0
        value: 0
        inSlope: 0
        outSlope: 0
        tangentMode: 0
      - time: .0166666675
        value: 0
        inSlope: 0
        outSlope: 0
        tangentMode: 0
      - time: .0333333351
        value: 0
        inSlope: 0
        outSlope: 0
        tangentMode: 0
      - time: .0500000045
        value: 0
        inSlope: 0
        outSlope: 0
        tangentMode: 0
      - time: .0666666701
        value: 0
        inSlope: 0
        outSlope: 0
        tangentMode: 0
      - time: .0833333358
        value: 0
        inSlope: 0
        outSlope: 0
        tangentMode: 0
      - time: .100000001
        value: 0
        inSlope: 0
        outSlope: 0
        tangentMode: 0
      - time: .116666667
        value: 0
        inSlope: 0
        outSlope: 0
        tangentMode: 0
      - time: .13333334
        value: 0
        inSlope: 0
        outSlope: 0
        tangentMode: 0
      - time: .150000006
        value: 0
        inSlope: 0
        outSlope: 0
        tangentMode: 0
      - time: .166666672
        value: 0
        inSlope: 0
        outSlope: 0
        tangentMode: 0
      - time: .183333337
        value: 0
        inSlope: 0
        outSlope: 0
        tangentMode: 0
      - time: .200000003
        value: 0
        inSlope: 0
        outSlope: 0
        tangentMode: 0
      - time: .216666669
        value: 0
        inSlope: 0
        outSlope: 0
        tangentMode: 0
      - time: .233333334
        value: 0
        inSlope: 0
        outSlope: 0
        tangentMode: 0
      - time: .25
        value: 0
        inSlope: 0
        outSlope: 0
        tangentMode: 0
      - time: .266666681
        value: 0
        inSlope: 0
        outSlope: 0
        tangentMode: 0
      - time: .283333361
        value: 0
        inSlope: 0
        outSlope: 0
        tangentMode: 0
      - time: .300000042
        value: 0
        inSlope: 0
        outSlope: 0
        tangentMode: 0
      - time: .316666722
        value: 0
        inSlope: 0
        outSlope: 0
        tangentMode: 0
      - time: .333333403
        value: 0
        inSlope: 0
        outSlope: 0
        tangentMode: 0
      - time: .350000083
        value: 0
        inSlope: 0
        outSlope: 0
        tangentMode: 0
      - time: .366666764
        value: 0
        inSlope: 0
        outSlope: 0
        tangentMode: 0
      - time: .383333445
        value: 0
        inSlope: 0
        outSlope: 0
        tangentMode: 0
      - time: .400000125
        value: 0
        inSlope: 0
        outSlope: 0
        tangentMode: 0
      - time: .416666806
        value: 0
        inSlope: 0
        outSlope: 0
        tangentMode: 0
      - time: .433333486
        value: 0
        inSlope: 0
        outSlope: 0
        tangentMode: 0
      - time: .450000167
        value: 0
        inSlope: 0
        outSlope: 0
        tangentMode: 0
      - time: .466666847
        value: 0
        inSlope: 0
        outSlope: 0
        tangentMode: 0
      - time: .483333528
        value: 0
        inSlope: 0
        outSlope: 0
        tangentMode: 0
      - time: .500000179
        value: 0
        inSlope: 0
        outSlope: 0
        tangentMode: 0
      - time: .51666683
        value: 0
        inSlope: 0
        outSlope: 0
        tangentMode: 0
      - time: .53333348
        value: 0
        inSlope: 0
        outSlope: 0
        tangentMode: 0
      - time: .550000131
        value: 0
        inSlope: 0
        outSlope: 0
        tangentMode: 0
      - time: .566666782
        value: 0
        inSlope: 0
        outSlope: 0
        tangentMode: 0
      - time: .583333433
        value: 0
        inSlope: 0
        outSlope: 0
        tangentMode: 0
      - time: .600000083
        value: 0
        inSlope: 0
        outSlope: 0
        tangentMode: 0
      - time: .616666734
        value: 0
        inSlope: 0
        outSlope: 0
        tangentMode: 0
      - time: .633333385
        value: 0
        inSlope: 0
        outSlope: 0
        tangentMode: 0
      - time: .650000036
        value: 0
        inSlope: 0
        outSlope: 0
        tangentMode: 0
      - time: .666666687
        value: 0
        inSlope: 0
        outSlope: 0
        tangentMode: 0
      - time: .683333337
        value: 0
        inSlope: 0
        outSlope: 0
        tangentMode: 0
      - time: .699999988
        value: 0
        inSlope: 0
        outSlope: 0
        tangentMode: 0
      - time: .716666639
        value: 0
        inSlope: 0
        outSlope: 0
        tangentMode: 0
      - time: .73333329
        value: 0
        inSlope: 0
        outSlope: 0
        tangentMode: 0
      - time: .74999994
        value: 0
        inSlope: 0
        outSlope: 0
        tangentMode: 0
      - time: .766666591
        value: 0
        inSlope: 0
        outSlope: 0
        tangentMode: 0
      - time: .783333242
        value: 0
        inSlope: 0
        outSlope: 0
        tangentMode: 0
      - time: .799999893
        value: 0
        inSlope: 0
        outSlope: 0
        tangentMode: 0
      - time: .816666543
        value: 0
        inSlope: 0
        outSlope: 0
        tangentMode: 0
      - time: .833333194
        value: 0
        inSlope: 0
        outSlope: 0
        tangentMode: 0
      - time: .849999845
        value: 0
        inSlope: 0
        outSlope: 0
        tangentMode: 0
      - time: .866666496
        value: 0
        inSlope: 0
        outSlope: 0
        tangentMode: 0
      - time: .883333147
        value: 0
        inSlope: 0
        outSlope: 0
        tangentMode: 0
      - time: .899999797
        value: 0
        inSlope: 0
        outSlope: 0
        tangentMode: 0
      - time: .916666448
        value: 0
        inSlope: 0
        outSlope: 0
        tangentMode: 0
      - time: .933333099
        value: 0
        inSlope: 0
        outSlope: 0
        tangentMode: 0
      - time: .94999975
        value: 0
        inSlope: 0
        outSlope: 0
        tangentMode: 0
      - time: .9666664
        value: 0
        inSlope: 0
        outSlope: 0
        tangentMode: 0
      - time: .983333051
        value: 0
        inSlope: 0
        outSlope: 0
        tangentMode: 0
      - time: .999999702
        value: 0
        inSlope: 0
        outSlope: 0
        tangentMode: 0
      - time: 1.01666641
        value: 0
        inSlope: 0
        outSlope: 0
        tangentMode: 0
      - time: 1.03333306
        value: 0
        inSlope: 0
        outSlope: 0
        tangentMode: 0
      - time: 1.04999971
        value: 0
        inSlope: 0
        outSlope: 0
        tangentMode: 0
      - time: 1.06666636
        value: 0
        inSlope: 0
        outSlope: 0
        tangentMode: 0
      - time: 1.08333302
        value: 0
        inSlope: 0
        outSlope: 0
        tangentMode: 0
      - time: 1.09999967
        value: 0
        inSlope: 0
        outSlope: 0
        tangentMode: 0
      - time: 1.11666632
        value: 0
        inSlope: 0
        outSlope: 0
        tangentMode: 0
      - time: 1.13333297
        value: 0
        inSlope: 0
        outSlope: 0
        tangentMode: 0
      - time: 1.14999962
        value: 0
        inSlope: 0
        outSlope: 0
        tangentMode: 0
      - time: 1.16666663
        value: 0
        inSlope: 0
        outSlope: 0
        tangentMode: 0
      m_PreInfinity: 2
      m_PostInfinity: 2
    attribute: m_LocalRotation.z
    path: 
    classID: 4
    script: {fileID: 0}
  - curve:
      serializedVersion: 2
      m_Curve:
      - time: 0
        value: .707106769
        inSlope: 1.44142973
        outSlope: 1.44142973
        tangentMode: 0
      - time: .0166666675
        value: .7311306
        inSlope: 1.39492559
        outSlope: 1.39492559
        tangentMode: 0
      - time: .0333333351
        value: .753604293
        inSlope: 1.30375719
        outSlope: 1.30375719
        tangentMode: 0
      - time: .0500000045
        value: .774589181
        inSlope: 1.21630836
        outSlope: 1.21630836
        tangentMode: 0
      - time: .0666666701
        value: .794147909
        inSlope: 1.13265049
        outSlope: 1.13265049
        tangentMode: 0
      - time: .0833333358
        value: .812344193
        inSlope: 1.05282259
        outSlope: 1.05282259
        tangentMode: 0
      - time: .100000001
        value: .829241991
        inSlope: .976832032
        outSlope: .976832032
        tangentMode: 0
      - time: .116666667
        value: .844905257
        inSlope: .904660702
        outSlope: .904660702
        tangentMode: 0
      - time: .13333334
        value: .859397352
        inSlope: .836273313
        outSlope: .836273313
        tangentMode: 0
      - time: .150000006
        value: .872781038
        inSlope: .771617949
        outSlope: .771617949
        tangentMode: 0
      - time: .166666672
        value: .885117948
        inSlope: .71062094
        outSlope: .71062094
        tangentMode: 0
      - time: .183333337
        value: .896468401
        inSlope: .653198421
        outSlope: .653198421
        tangentMode: 0
      - time: .200000003
        value: .906891227
        inSlope: .599255621
        outSlope: .599255621
        tangentMode: 0
      - time: .216666669
        value: .916443586
        inSlope: .548687041
        outSlope: .548687041
        tangentMode: 0
      - time: .233333334
        value: .925180793
        inSlope: .50137645
        outSlope: .50137645
        tangentMode: 0
      - time: .25
        value: .933156133
        inSlope: .457205594
        outSlope: .457205594
        tangentMode: 0
      - time: .266666681
        value: .940420985
        inSlope: .416053176
        outSlope: .416053176
        tangentMode: 0
      - time: .283333361
        value: .947024584
        inSlope: .377788842
        outSlope: .377788842
        tangentMode: 0
      - time: .300000042
        value: .953013957
        inSlope: .342287123
        outSlope: .342287123
        tangentMode: 0
      - time: .316666722
        value: .958434165
        inSlope: .309417605
        outSlope: .309417605
        tangentMode: 0
      - time: .333333403
        value: .963327885
        inSlope: .279046059
        outSlope: .279046059
        tangentMode: 0
      - time: .350000083
        value: .967735708
        inSlope: .251047403
        outSlope: .251047403
        tangentMode: 0
      - time: .366666764
        value: .971696138
        inSlope: .225291073
        outSlope: .225291073
        tangentMode: 0
      - time: .383333445
        value: .975245416
        inSlope: .201650083
        outSlope: .201650083
        tangentMode: 0
      - time: .400000125
        value: .978417814
        inSlope: .180004686
        outSlope: .180004686
        tangentMode: 0
      - time: .416666806
        value: .981245577
        inSlope: .160229668
        outSlope: .160229668
        tangentMode: 0
      - time: .433333486
        value: .983758807
        inSlope: .142208815
        outSlope: .142208815
        tangentMode: 0
      - time: .450000167
        value: .985985875
        inSlope: .125829473
        outSlope: .125829473
        tangentMode: 0
      - time: .466666847
        value: .987953126
        inSlope: .110978991
        outSlope: .110978991
        tangentMode: 0
      - time: .483333528
        value: .989685178
        inSlope: .0975555182
        outSlope: .0975555182
        tangentMode: 0
      - time: .500000179
        value: .991204977
        inSlope: .085453473
        outSlope: .085453473
        tangentMode: 0
      - time: .51666683
        value: .992533624
        inSlope: .0745744258
        outSlope: .0745744258
        tangentMode: 0
      - time: .53333348
        value: .993690789
        inSlope: .0648290515
        outSlope: .0648290515
        tangentMode: 0
      - time: .550000131
        value: .994694591
        inSlope: .0561243817
        outSlope: .0561243817
        tangentMode: 0
      - time: .566666782
        value: .9955616
        inSlope: .0483781546
        outSlope: .0483781546
        tangentMode: 0
      - time: .583333433
        value: .996307194
        inSlope: .041509904
        outSlope: .041509904
        tangentMode: 0
      - time: .600000083
        value: .996945262
        inSlope: .0354427435
        outSlope: .0354427435
        tangentMode: 0
      - time: .616666734
        value: .997488618
        inSlope: .0301051419
        outSlope: .0301051419
        tangentMode: 0
      - time: .633333385
        value: .997948766
        inSlope: .025430942
        outSlope: .025430942
        tangentMode: 0
      - time: .650000036
        value: .998336315
        inSlope: .0213557687
        outSlope: .0213557687
        tangentMode: 0
      - time: .666666687
        value: .998660624
        inSlope: .0178188253
        outSlope: .0178188253
        tangentMode: 0
      - time: .683333337
        value: .998930275
        inSlope: .0147700449
        outSlope: .0147700449
        tangentMode: 0
      - time: .699999988
        value: .999152958
        inSlope: .0121522062
        outSlope: .0121522062
        tangentMode: 0
      - time: .716666639
        value: .999335349
        inSlope: .00992060639
        outSlope: .00992060639
        tangentMode: 0
      - time: .73333329
        value: .999483645
        inSlope: .00803054124
        outSlope: .00803054124
        tangentMode: 0
      - time: .74999994
        value: .999603033
        inSlope: .00644088443
        outSlope: .00644088443
        tangentMode: 0
      - time: .766666591
        value: .999698341
        inSlope: .00511587132
        outSlope: .00511587132
        tangentMode: 0
      - time: .783333242
        value: .999773562
        inSlope: .00401795283
        outSlope: .00401795283
        tangentMode: 0
      - time: .799999893
        value: .999832273
        inSlope: .00311851781
        outSlope: .00311851781
        tangentMode: 0
      - time: .816666543
        value: .999877512
        inSlope: .00238895649
        outSlope: .00238895649
        tangentMode: 0
      - time: .833333194
        value: .999911904
        inSlope: .00180423423
        outSlope: .00180423423
        tangentMode: 0
      - time: .849999845
        value: .999937654
        inSlope: .00134289393
        outSlope: .00134289393
        tangentMode: 0
      - time: .866666496
        value: .999956667
        inSlope: .00098347757
        outSlope: .00098347757
        tangentMode: 0
      - time: .883333147
        value: .999970436
        inSlope: .0007045276
        outSlope: .0007045276
        tangentMode: 0
      - time: .899999797
        value: .999980152
        inSlope: .000495315064
        outSlope: .000495315064
        tangentMode: 0
      - time: .916666448
        value: .999986947
        inSlope: .000339746795
        outSlope: .000339746795
        tangentMode: 0
      - time: .933333099
        value: .999991477
        inSlope: .000227093915
        outSlope: .000227093915
        tangentMode: 0
      - time: .94999975
        value: .999994516
        inSlope: .00015020385
        outSlope: .00015020385
        tangentMode: 0
      - time: .9666664
        value: .999996483
        inSlope: 9.47714725e-05
        outSlope: 9.47714725e-05
        tangentMode: 0
      - time: .983333051
        value: .999997675
        inSlope: 5.90086529e-05
        outSlope: 5.90086529e-05
        tangentMode: 0
      - time: .999999702
        value: .99999845
        inSlope: 3.5762776e-05
        outSlope: 3.5762776e-05
        tangentMode: 0
      - time: 1.01666641
        value: .999998868
        inSlope: 1.96695073e-05
        outSlope: 1.96695073e-05
        tangentMode: 0
      - time: 1.03333306
        value: .999999106
        inSlope: 1.07288461e-05
        outSlope: 1.07288461e-05
        tangentMode: 0
      - time: 1.04999971
        value: .999999225
        inSlope: 3.5762821e-06
        outSlope: 3.5762821e-06
        tangentMode: 0
      - time: 1.06666636
        value: .999999225
        inSlope: -1.78814105e-06
        outSlope: -1.78814105e-06
        tangentMode: 0
      - time: 1.08333302
        value: .999999166
        inSlope: -5.36442303e-06
        outSlope: -5.36442303e-06
        tangentMode: 0
      - time: 1.09999967
        value: .999999046
        inSlope: -7.15256419e-06
        outSlope: -7.15256419e-06
        tangentMode: 0
      - time: 1.11666632
        value: .999998927
        inSlope: -8.9407049e-06
        outSlope: -8.9407049e-06
        tangentMode: 0
      - time: 1.13333297
        value: .999998748
        inSlope: -8.9407049e-06
        outSlope: -8.9407049e-06
        tangentMode: 0
      - time: 1.14999962
        value: .999998629
        inSlope: -7.15248734e-06
        outSlope: -7.15248734e-06
        tangentMode: 0
      - time: 1.16666663
        value: .99999851
        inSlope: -7.15241094e-06
        outSlope: -7.15241094e-06
        tangentMode: 0
      m_PreInfinity: 2
      m_PostInfinity: 2
    attribute: m_LocalRotation.w
    path: 
    classID: 4
    script: {fileID: 0}
  m_EulerEditorCurves:
  - curve:
      serializedVersion: 2
      m_Curve:
      - time: 0
        value: 90
        inSlope: -421.835693
        outSlope: -241.32431
        tangentMode: 1
      - time: 1.16666663
        value: .19955653
        inSlope: .381650716
        outSlope: .381650716
        tangentMode: 0
      m_PreInfinity: 2
      m_PostInfinity: 2
    attribute: localEulerAnglesBaked.x
    path: 
    classID: 4
    script: {fileID: 0}
  - curve:
      serializedVersion: 2
      m_Curve:
      - time: 0
        value: 0
        inSlope: 0
        outSlope: 0
        tangentMode: 10
      - time: 1.16666663
        value: 0
        inSlope: 0
        outSlope: 0
        tangentMode: 10
      m_PreInfinity: 2
      m_PostInfinity: 2
    attribute: localEulerAnglesBaked.y
    path: 
    classID: 4
    script: {fileID: 0}
  - curve:
      serializedVersion: 2
      m_Curve:
      - time: 0
        value: 0
        inSlope: 0
        outSlope: 0
        tangentMode: 10
      - time: 1.16666663
        value: 0
        inSlope: 0
        outSlope: 0
        tangentMode: 10
      m_PreInfinity: 2
      m_PostInfinity: 2
    attribute: localEulerAnglesBaked.z
    path: 
    classID: 4
    script: {fileID: 0}
  m_Events: []
